Climate Change Module
…
In 1958, Dr. Charles David Keeling (1928-2005), a scientist at Scripps Institute of Oceanography, began collecting data on atmospheric CO2 concentration at the Mauna Loa Observatory located in Hawaii. This dataset allowed us to understand the degree to which climate change is human-caused through our burning of fossil fuels and release of CO2 into the atmosphere. Due to his scientific achievements, Dr. Keeling was awarded the National Medal of Science by President George W. Bush in 2002. This is the highest award for lifetime scientific achievement that can be granted in the U.S. Today, you get to analyze this same dataset, except that you have more data than was available to Dr. Keeling and his colleagues because your dataset extends up to the current time.

To read the code, you will use a new function called read_table. It is similar to read_csv except it looks for spaces between column entries rather than commas (remember that csv stands for comma-separated values). Others include read_tsv, which uses tabs to separate entries. You can discover the separation type by putting https://gml.noaa.gov/webdata/ccgg/trends/co2/co2_mm_mlo.txt into your web browser and examining the file. The code also includes an argument for comment, which denotes the character used to define a line in the file as being a comment rather than data or a header. The file also reveals that the column headers are on lines with a comment character, so they won’t be read. You will use the argument col_names to define the headers manually. Finally, NA values are defined by the numbers -1 and -99, so they need to be defined using the na argument (otherwise, they will be read as numeric values).

co2 <-  read_table("https://gml.noaa.gov/webdata/ccgg/trends/co2/co2_mm_mlo.txt", 
                  comment="#",
                  col_names = c("year", "month", "decimal_date",
                                "monthly_average",
                                "deseasonalized", "days", "sd_days",
                                "unc_month_mean"),
                  na = c("-1", "-99.99"))
co2

# A tibble: 803 × 8
    year month decimal_date monthly_average deseasonalized  days sd_days
   <dbl> <dbl>        <dbl>           <dbl>          <dbl> <dbl>   <dbl>
 1  1958     3        1958.            316.           314.    NA   -9.99
 2  1958     4        1958.            317.           315.    NA   -9.99
 3  1958     5        1958.            318.           315.    NA   -9.99
 4  1958     6        1958.            317.           315.    NA   -9.99
 5  1958     7        1959.            316.           315.    NA   -9.99
 6  1958     8        1959.            315.           316.    NA   -9.99
 7  1958     9        1959.            313.           316.    NA   -9.99
 8  1958    10        1959.            312.           315.    NA   -9.99
 9  1958    11        1959.            313.           315.    NA   -9.99
10  1958    12        1959.            315.           315.    NA   -9.99
# ℹ 793 more rows
# ℹ 1 more variable: unc_month_mean <dbl>
…
── Column specification ────────────────────────────────────────────────────────
cols(
  `Depth(m)` = col_double(),
  Age_of_the_ice = col_double(),
  Mean_age_of_air = col_double(),
  CO2_conc = col_double()
)

ice_core

# A tibble: 363 × 4
   `Depth(m)` Age_of_the_ice Mean_age_of_air CO2_conc
        <dbl>          <dbl>           <dbl>    <dbl>
 1       149.           5679            2342     285.
 2       173.           6828            3634     273.
 3       177.           7043            3833     268.
 4       229.           9523            6220     262.
 5       250.          10579            7327     255.
 6       266           11334            8113     260.
 7       303.          13449           10123     262.
 8       321.          14538           11013     264.
 9       332.          15208           11326     245.
10       342.          15922           11719     238.
# ℹ 353 more rows
…
